{
    "apiVersion": "1.0.5",
    "swaggerVersion": "1.2",
    "basePath": "/",
    "resourcePath": "/company/",
    "produces":[
        "application/json",
        "application/xml",
        "text/plain",
        "text/html"
    ],

    "apis":[
        {
            "path":"/api/company/brand_intro/get",
            "operations":[
                {
                    "method":"GET",
                    "summary":"品牌与业务、专业团队、联系我们",
                    "notes":"",
                    "nickname":"company__api_company_brand_intro",
                    "parameters":[
                        {
                            "name":"module",
                            "description":"0:品牌与业务、1:专业团队、2:联系我们",
                            "type": "integer",
                            "paramType": "query",
                            "required": true,
                            "allowMultiple": false
                        }
                    ]
                }
            ]
        }
    ]
}